Loading application CMake 
Rank =    0  Free Memory = 124939 MB
Rank =    1  Free Memory = 124939 MB
Rank =    2  Free Memory = 124939 MB
Rank =    3  Free Memory = 124939 MB
Rank =    4  Free Memory = 124939 MB
Rank =    5  Free Memory = 124939 MB
