Loading application CMake 
Rank =    0  Free Memory = 125568 MB
Rank =    1  Free Memory = 125568 MB
Rank =    2  Free Memory = 125568 MB
Rank =    3  Free Memory = 125568 MB
Rank =    4  Free Memory = 125568 MB
Rank =    5  Free Memory = 125568 MB
WARNING Skip Chiesa estimator due to the lack of support with SoA. Access the correction via AoS at the moment.
